pivot | oushiei'website
…
##练习
iris%>% pivot_longer(cols=c('Petal.Length','Petal.Width'),
                     names_to=c('我起的'),
                     values_to=c('奇怪的名字'))

## # A tibble: 300 × 5
##    Sepal.Length Sepal.Width Species 我起的       奇怪的名字
##           <dbl>       <dbl> <fct>   <chr>             <dbl>
##  1          5.1         3.5 setosa  Petal.Length        1.4
##  2          5.1         3.5 setosa  Petal.Width         0.2
##  3          4.9         3   setosa  Petal.Length        1.4
##  4          4.9         3   setosa  Petal.Width         0.2
##  5          4.7         3.2 setosa  Petal.Length        1.3
##  6          4.7         3.2 setosa  Petal.Width         0.2
##  7          4.6         3.1 setosa  Petal.Length        1.5
##  8          4.6         3.1 setosa  Petal.Width         0.2
##  9          5           3.6 setosa  Petal.Length        1.4
## 10          5           3.6 setosa  Petal.Width         0.2
## # … with 290 more rows
…
