…
##转换为dataf
out <- convert(dfm(t1), to = "data.frame")
my_df <- out %>% 
  pivot_longer(cols = c(!doc_id), names_to = "tokens", values_to = "freq")
my_df

## # A tibble: 2,932 × 3
##    doc_id tokens    freq
##    <chr>  <chr>    <dbl>
##  1 text1  目不转睛     4
##  2 text1  一无所知     3
##  3 text1  自作主张     9
##  4 text1  一清二楚     3
##  5 text1  大家闺秀     6
##  6 text1  寻花问柳     1
##  7 text1  不在话下     1
##  8 text1  卧床不起     1
##  9 text1  开门见山     3
## 10 text1  转弯抹角     3
## # … with 2,922 more rows
…
